Homework-8
…
    rainfall = sum(rainfall),
    snowfall = sum(snowfall),
    # Find mean of all weather related variables
    temp = mean(temp),
    humidity = mean(humidity),
    wind_speed = mean(wind_speed),
    visibility = mean(visibility),
    dew_point_temp = mean(dew_point_temp),
    solar_radiation = mean(solar_radiation),
    .groups = "drop"
  )
# Check if that worked
bike_summary

# A tibble: 353 × 12
   date       seasons holiday    bike_count rainfall snowfall    temp humidity
   <date>     <fct>   <fct>           <int>    <dbl>    <dbl>   <dbl>    <dbl>
 1 2017-12-01 Winter  No Holiday       9539      0        0   -2.45       45.9
 2 2017-12-02 Winter  No Holiday       8523      0        0    1.33       62.0
 3 2017-12-03 Winter  No Holiday       7222      4        0    4.88       81.5
 4 2017-12-04 Winter  No Holiday       8729      0.1      0   -0.304      52.5
 5 2017-12-05 Winter  No Holiday       8307      0        0   -4.46       36.4
 6 2017-12-06 Winter  No Holiday       6669      1.3      8.6  0.0458     70.8
 7 2017-12-07 Winter  No Holiday       8549      0       10.4  1.09       67.5
 8 2017-12-08 Winter  No Holiday       8032      0        0   -3.82       41.8
 9 2017-12-09 Winter  No Holiday       7233      0        0   -0.846      46  
10 2017-12-10 Winter  No Holiday       3453      4.1     32.5  1.19       69.7
# ℹ 343 more rows
# ℹ 4 more variables: wind_speed <dbl>, visibility <dbl>, dew_point_temp <dbl>,
#   solar_radiation <dbl>
…
# Compute RMSE metric on test set
metrics(final_predictions, truth = bike_count, estimate = .pred)

# A tibble: 3 × 3
  .metric .estimator .estimate
  <chr>   <chr>          <dbl>
1 rmse    standard    2957.   
2 rsq     standard       0.915
3 mae     standard    2191.   

# Extract fitted model 
final_fit_extract <- extract_fit_parsnip(final_fit)
tidy(final_fit_extract)

# A tibble: 34 × 5
   term               estimate std.error statistic  p.value
   <chr>                 <dbl>     <dbl>     <dbl>    <dbl>
 1 (Intercept)         19922.      1577.    12.6   3.83e-28
 2 snowfall             -148.       213.    -0.698 4.86e- 1
 3 seasons_Spring      -2102.       262.    -8.01  5.73e-14
 4 seasons_Summer       6267.       961.     6.52  4.37e-10
 5 seasons_Winter      -5156.       995.    -5.18  4.85e- 7
 6 holiday_No.Holiday    937.       216.     4.35  2.05e- 5
 7 day_of_week_1         484.       180.     2.69  7.72e- 3
 8 day_of_week_2       -1142.       181.    -6.32  1.35e- 9
 9 day_of_week_3         -56.1      184.    -0.304 7.61e- 1
10 day_of_week_4         -99.0      178.    -0.555 5.79e- 1
# ℹ 24 more rows
…
